%YAML 1.1
%TAG !u! tag:unity3d.com,2011:
--- !u!221 &22100000
AnimatorOverrideController:
  m_ObjectHideFlags: 0
  m_PrefabParentObject: {fileID: 0}
  m_PrefabInternal: {fileID: 0}
  m_Name: WindArmor
  m_Controller: {fileID: 9100000, guid: de596191a6babc6448b9af1472af5ff1, type: 2}
  m_Clips:
  - m_OriginalClip: {fileID: 7400000, guid: 68af8841225444e4da14b2f56ae16b11, type: 2}
    m_OverrideClip: {fileID: 7400000, guid: 68af8841225444e4da14b2f56ae16b11, type: 2}
  - m_OriginalClip: {fileID: 7400000, guid: 06e761e7e3dad954ebe23fb6a6a99ae2, type: 2}
    m_OverrideClip: {fileID: 7400000, guid: bf86c0da354358c4d8982b28788f1b8a, type: 2}
