%YAML 1.1
%TAG !u! tag:unity3d.com,2011:
--- !u!221 &22100000
AnimatorOverrideController:
  m_ObjectHideFlags: 0
  m_PrefabParentObject: {fileID: 0}
  m_PrefabInternal: {fileID: 0}
  m_Name: EarthAura
  m_Controller: {fileID: 9100000, guid: 0a165758f4c6e1840ac91dc6f524117f, type: 2}
  m_Clips:
  - m_OriginalClip: {fileID: 7400000, guid: 06e761e7e3dad954ebe23fb6a6a99ae2, type: 2}
    m_OverrideClip: {fileID: 7400000, guid: 78e7631b34c18da4f93c2c8d15d80e7c, type: 2}
