%YAML 1.1
%TAG !u! tag:unity3d.com,2011:
--- !u!221 &22100000
AnimatorOverrideController:
  m_ObjectHideFlags: 0
  m_PrefabParentObject: {fileID: 0}
  m_PrefabInternal: {fileID: 0}
  m_Name: WindAttack
  m_Controller: {fileID: 9100000, guid: 3b497e3eab8bd3749ac3c8d4b695face, type: 2}
  m_Clips:
  - m_OriginalClip: {fileID: 7400000, guid: 06e761e7e3dad954ebe23fb6a6a99ae2, type: 2}
    m_OverrideClip: {fileID: 7400000, guid: bf86c0da354358c4d8982b28788f1b8a, type: 2}
  - m_OriginalClip: {fileID: 7400000, guid: fa5ae903b6d014e49a584564464c335f, type: 2}
    m_OverrideClip: {fileID: 7400000, guid: 5bccd287ae9d5e345bdd85f393787cb7, type: 2}
  - m_OriginalClip: {fileID: 7400000, guid: fbe0bc8c5088a124f9a5b6f33ec04248, type: 2}
    m_OverrideClip: {fileID: 7400000, guid: 800339280a1aa0148b351f5392291999, type: 2}
  - m_OriginalClip: {fileID: 7400000, guid: 8e9c85223f961a143ae04002d9fd81bf, type: 2}
    m_OverrideClip: {fileID: 7400000, guid: 8e9c85223f961a143ae04002d9fd81bf, type: 2}
