%YAML 1.1
%TAG !u! tag:unity3d.com,2011:
--- !u!13 &1
InputManager:
  m_ObjectHideFlags: 0
  serializedVersion: 2
  m_Axes:
  - serializedVersion: 3
    m_Name: Horizontal1
    descriptiveName: 
    descriptiveNegativeName: 
    negativeButton: a
    positiveButton: d
    altNegativeButton: 
    altPositiveButton: 
    gravity: 1000
    dead: 0.001
    sensitivity: 1000
    snap: 0
    invert: 0
    type: 0
    axis: 0
    joyNum: 1
  - serializedVersion: 3
    m_Name: Vertical1
    descriptiveName: 
    descriptiveNegativeName: 
    negativeButton: s
    positiveButton: w
    altNegativeButton: 
    altPositiveButton: 
    gravity: 1000
    dead: 0.001
    sensitivity: 3
    snap: 1
    invert: 0
    type: 0
    axis: 1
    joyNum: 1
  - serializedVersion: 3
    m_Name: Horizontal2
    descriptiveName: 
    descriptiveNegativeName: 
    negativeButton: j
    positiveButton: l
    altNegativeButton: 
    altPositiveButton: 
    gravity: 1000
    dead: 0.001
    sensitivity: 1000
    snap: 0
    invert: 0
    type: 0
    axis: 0
    joyNum: 2
  - serializedVersion: 3
    m_Name: Vertical2
    descriptiveName: 
    descriptiveNegativeName: 
    negativeButton: k
    positiveButton: i
    altNegativeButton: 
    altPositiveButton: 
    gravity: 1000
    dead: 0.001
    sensitivity: 3
    snap: 1
    invert: 0
    type: 0
    axis: 1
    joyNum: 2
  - serializedVersion: 3
    m_Name: CastAttack1
    descriptiveName: 
    descriptiveNegativeName: 
    negativeButton: 
    positiveButton: e
    altNegativeButton: 
    altPositiveButton: 
    gravity: 3
    dead: 0.001
    sensitivity: 3
    snap: 0
    invert: 0
    type: 0
    axis: 1
    joyNum: 2
  - serializedVersion: 3
    m_Name: CastDefense1
    descriptiveName: 
    descriptiveNegativeName: 
    negativeButton: 
    positiveButton: q
    altNegativeButton: 
    altPositiveButton: 
    gravity: 3
    dead: 0.001
    sensitivity: 3
    snap: 0
    invert: 0
    type: 0
    axis: 1
    joyNum: 2
  - serializedVersion: 3
    m_Name: CastAttack2
    descriptiveName: 
    descriptiveNegativeName: 
    negativeButton: 
    positiveButton: u
    altNegativeButton: 
    altPositiveButton: 
    gravity: 3
    dead: 0.001
    sensitivity: 3
    snap: 0
    invert: 0
    type: 0
    axis: 1
    joyNum: 2
  - serializedVersion: 3
    m_Name: CastDefense2
    descriptiveName: 
    descriptiveNegativeName: 
    negativeButton: 
    positiveButton: o
    altNegativeButton: 
    altPositiveButton: 
    gravity: 3
    dead: 0.001
    sensitivity: 3
    snap: 0
    invert: 0
    type: 0
    axis: 1
    joyNum: 2
  - serializedVersion: 3
    m_Name: Submit
    descriptiveName: 
    descriptiveNegativeName: 
    negativeButton: 
    positiveButton: return
    altNegativeButton: 
    altPositiveButton: space
    gravity: 3
    dead: 0.001
    sensitivity: 3
    snap: 0
    invert: 0
    type: 0
    axis: 1
    joyNum: 2
  - serializedVersion: 3
    m_Name: Cancel
    descriptiveName: 
    descriptiveNegativeName: 
    negativeButton: 
    positiveButton: escape
    altNegativeButton: 
    altPositiveButton: 
    gravity: 3
    dead: 0.001
    sensitivity: 3
    snap: 0
    invert: 0
    type: 0
    axis: 1
    joyNum: 2
  - serializedVersion: 3
    m_Name: Horizontal
    descriptiveName: 
    descriptiveNegativeName: 
    negativeButton: left
    positiveButton: right
    altNegativeButton: 
    altPositiveButton: 
    gravity: 3
    dead: 0.001
    sensitivity: 3
    snap: 0
    invert: 0
    type: 0
    axis: 1
    joyNum: 2
  - serializedVersion: 3
    m_Name: Vertical
    descriptiveName: 
    descriptiveNegativeName: 
    negativeButton: down
    positiveButton: up
    altNegativeButton: 
    altPositiveButton: 
    gravity: 3
    dead: 0.001
    sensitivity: 3
    snap: 0
    invert: 0
    type: 0
    axis: 1
    joyNum: 2
  - serializedVersion: 3
    m_Name: CastAttack1
    descriptiveName: 
    descriptiveNegativeName: 
    negativeButton: 
    positiveButton: 
    altNegativeButton: 
    altPositiveButton: 
    gravity: 3
    dead: 0.5
    sensitivity: 3
    snap: 0
    invert: 0
    type: 2
    axis: 9
    joyNum: 1
  - serializedVersion: 3
    m_Name: CastDefense1
    descriptiveName: 
    descriptiveNegativeName: 
    negativeButton: 
    positiveButton: 
    altNegativeButton: 
    altPositiveButton: 
    gravity: 3
    dead: 0.5
    sensitivity: 3
    snap: 0
    invert: 0
    type: 2
    axis: 8
    joyNum: 1
  - serializedVersion: 3
    m_Name: CastAttack2
    descriptiveName: 
    descriptiveNegativeName: 
    negativeButton: 
    positiveButton: 
    altNegativeButton: 
    altPositiveButton: 
    gravity: 3
    dead: 0.5
    sensitivity: 3
    snap: 0
    invert: 0
    type: 2
    axis: 9
    joyNum: 2
  - serializedVersion: 3
    m_Name: CastDefense2
    descriptiveName: 
    descriptiveNegativeName: 
    negativeButton: 
    positiveButton: 
    altNegativeButton: 
    altPositiveButton: 
    gravity: 3
    dead: 0.5
    sensitivity: 3
    snap: 0
    invert: 0
    type: 2
    axis: 8
    joyNum: 2
  - serializedVersion: 3
    m_Name: Vertical1
    descriptiveName: 
    descriptiveNegativeName: 
    negativeButton: 
    positiveButton: 
    altNegativeButton: 
    altPositiveButton: 
    gravity: 3
    dead: 0.5
    sensitivity: 3
    snap: 0
    invert: 1
    type: 2
    axis: 1
    joyNum: 1
  - serializedVersion: 3
    m_Name: Vertical2
    descriptiveName: 
    descriptiveNegativeName: 
    negativeButton: 
    positiveButton: 
    altNegativeButton: 
    altPositiveButton: 
    gravity: 3
    dead: 0.5
    sensitivity: 3
    snap: 0
    invert: 1
    type: 2
    axis: 1
    joyNum: 2
  - serializedVersion: 3
    m_Name: ElementFire1
    descriptiveName: 
    descriptiveNegativeName: 
    negativeButton: 
    positiveButton: joystick 1 button 1
    altNegativeButton: 
    altPositiveButton: 
    gravity: 3
    dead: 0.5
    sensitivity: 3
    snap: 0
    invert: 0
    type: 0
    axis: 1
    joyNum: 1
  - serializedVersion: 3
    m_Name: ElementWater1
    descriptiveName: 
    descriptiveNegativeName: 
    negativeButton: 
    positiveButton: joystick 1 button 2
    altNegativeButton: 
    altPositiveButton: 
    gravity: 3
    dead: 0.5
    sensitivity: 3
    snap: 0
    invert: 0
    type: 0
    axis: 1
    joyNum: 1
  - serializedVersion: 3
    m_Name: ElementEarth1
    descriptiveName: 
    descriptiveNegativeName: 
    negativeButton: 
    positiveButton: joystick 1 button 0
    altNegativeButton: 
    altPositiveButton: 
    gravity: 3
    dead: 0.5
    sensitivity: 3
    snap: 0
    invert: 0
    type: 0
    axis: 1
    joyNum: 1
  - serializedVersion: 3
    m_Name: ElementWind1
    descriptiveName: 
    descriptiveNegativeName: 
    negativeButton: 
    positiveButton: joystick 1 button 3
    altNegativeButton: 
    altPositiveButton: 
    gravity: 3
    dead: 0.5
    sensitivity: 3
    snap: 0
    invert: 0
    type: 0
    axis: 1
    joyNum: 1
  - serializedVersion: 3
    m_Name: ElementFire2
    descriptiveName: 
    descriptiveNegativeName: 
    negativeButton: 
    positiveButton: joystick 2 button 1
    altNegativeButton: 
    altPositiveButton: 
    gravity: 3
    dead: 0.5
    sensitivity: 3
    snap: 0
    invert: 0
    type: 0
    axis: 1
    joyNum: 2
  - serializedVersion: 3
    m_Name: ElementWater2
    descriptiveName: 
    descriptiveNegativeName: 
    negativeButton: 
    positiveButton: joystick 2 button 2
    altNegativeButton: 
    altPositiveButton: 
    gravity: 3
    dead: 0.5
    sensitivity: 3
    snap: 0
    invert: 0
    type: 0
    axis: 1
    joyNum: 2
  - serializedVersion: 3
    m_Name: ElementEarth2
    descriptiveName: 
    descriptiveNegativeName: 
    negativeButton: 
    positiveButton: joystick 2 button 0
    altNegativeButton: 
    altPositiveButton: 
    gravity: 3
    dead: 0.5
    sensitivity: 3
    snap: 0
    invert: 0
    type: 0
    axis: 1
    joyNum: 2
  - serializedVersion: 3
    m_Name: ElementWind2
    descriptiveName: 
    descriptiveNegativeName: 
    negativeButton: 
    positiveButton: joystick 2 button 3
    altNegativeButton: 
    altPositiveButton: 
    gravity: 3
    dead: 0.5
    sensitivity: 3
    snap: 0
    invert: 0
    type: 0
    axis: 1
    joyNum: 2
  - serializedVersion: 3
    m_Name: ElementReset1
    descriptiveName: 
    descriptiveNegativeName: 
    negativeButton: 
    positiveButton: joystick 1 button 5
    altNegativeButton: 
    altPositiveButton: r
    gravity: 3
    dead: 0.5
    sensitivity: 3
    snap: 0
    invert: 0
    type: 0
    axis: 1
    joyNum: 1
  - serializedVersion: 3
    m_Name: ElementReset2
    descriptiveName: 
    descriptiveNegativeName: 
    negativeButton: 
    positiveButton: joystick 1 button 4
    altNegativeButton: 
    altPositiveButton: y
    gravity: 3
    dead: 0.5
    sensitivity: 3
    snap: 0
    invert: 0
    type: 0
    axis: 1
    joyNum: 2
